…
Produce a one-page summary describing this dataset. Here is a non-exhaustive list of questions:

What is the distribution of songs’ popularity (track_popularity). Does it look like a Normal distribution?

It looks not like a standard normal distribution with very high frequency when track_popularity is close to 0.

count_track_popularity <- spotify_songs %>%
  select(track_name, track_popularity) %>%
   group_by(track_popularity) %>%
   summarize(count=n()) 
# %>%
count_track_popularity

## # A tibble: 101 × 2
##    track_popularity count
##               <dbl> <int>
##  1                0  2703
##  2                1   575
##  3                2   387
##  4                3   321
##  5                4   240
##  6                5   240
##  7                6   192
##  8                7   189
##  9                8   201
## 10                9   195
## # … with 91 more rows
…
spotify_songs

## # A tibble: 32,833 × 23
##    track_id      track…¹ track…² track…³ track…⁴ track…⁵ track…⁶ playl…⁷ playl…⁸
##    <chr>         <chr>   <chr>     <dbl> <chr>   <chr>   <chr>   <chr>   <chr>  
##  1 6f807x0ima9a… I Don'… Ed She…      66 2oCs0D… I Don'… 2019-0… Pop Re… 37i9dQ…
##  2 0r7CVbZTWZgb… Memori… Maroon…      67 63rPSO… Memori… 2019-1… Pop Re… 37i9dQ…
##  3 1z1Hg7Vb0AhH… All th… Zara L…      70 1HoSmj… All th… 2019-0… Pop Re… 37i9dQ…
##  4 75FpbthrwQmz… Call Y… The Ch…      60 1nqYsO… Call Y… 2019-0… Pop Re… 37i9dQ…
##  5 1e8PAfcKUYoK… Someon… Lewis …      69 7m7vv9… Someon… 2019-0… Pop Re… 37i9dQ…
##  6 7fvUMiyapMsR… Beauti… Ed She…      67 2yiy9c… Beauti… 2019-0… Pop Re… 37i9dQ…
##  7 2OAylPUDDfwR… Never … Katy P…      62 7INHYS… Never … 2019-0… Pop Re… 37i9dQ…
##  8 6b1RNvAcJjQH… Post M… Sam Fe…      69 6703SR… Post M… 2019-0… Pop Re… 37i9dQ…
##  9 7bF6tCO3gFb8… Tough … Avicii       68 7CvAfG… Tough … 2019-0… Pop Re… 37i9dQ…
## 10 1IXGILkPm0tO… If I C… Shawn …      67 4Qxzbf… If I C… 2019-0… Pop Re… 37i9dQ…
## # … with 32,823 more rows, 14 more variables: playlist_genre <chr>,
## #   playlist_subgenre <chr>, danceability <dbl>, energy <dbl>, key <dbl>,
## #   loudness <dbl>, mode <dbl>, speechiness <dbl>, acousticness <dbl>,
## #   instrumentalness <dbl>, liveness <dbl>, valence <dbl>, tempo <dbl>,
## #   duration_ms <dbl>, and abbreviated variable names ¹​track_name,
## #   ²​track_artist, ³​track_popularity, ⁴​track_album_id, ⁵​track_album_name,
## #   ⁶​track_album_release_date, ⁷​playlist_name, ⁸​playlist_id
…
