…
  # assume independence, i.e, there is no difference
  hypothesize(null = "independence") %>%
  
  # generate 1000 reps, of type "permute"
  generate(reps = 1000, type = "permute") %>%
  
  # calculate statistic of difference, namely "diff in means"
  calculate(stat = "diff in means", order = c("yes", "no"))

null_dist

## Response: weight (numeric)
## Explanatory: physical_3plus (factor)
## Null Hypothesis: independence
## # A tibble: 1,000 × 2
##    replicate    stat
##        <int>   <dbl>
##  1         1  0.0507
##  2         2 -0.286 
##  3         3 -0.155 
##  4         4 -0.242 
##  5         5  0.0582
##  6         6  0.0122
##  7         7 -0.0598
##  8         8  0.516 
##  9         9 -0.809 
## 10        10  0.154 
## # … with 990 more rows
…
# Let us compare GDP components for these 3 countries
country_list <- c("United States","India", "Germany")
Indicator_list <- c('Gross capital formation', "Exports of goods and services", "General government final consumption expenditure", "Household consumption expenditure (including Non-profit institutions serving households)", "Imports of goods and services"
)
tidy_GDP_data_countrywise <- tidy_GDP_data %>%
  
#  
  filter(Country %in% country_list, IndicatorName %in% Indicator_list) %>% 
  
  group_by(Country) %>% 
   mutate(year = as.integer(year))
  
tidy_GDP_data_countrywise

## # A tibble: 720 × 7
## # Groups:   Country [3]
##    CountryID Country IndicatorName                  year     GDP GDP_new tidy_…¹
##        <dbl> <chr>   <chr>                         <int>   <dbl>   <dbl> <chr>  
##  1       276 Germany Household consumption expend…  1970 8.72e11    872. Househ…
##  2       276 Germany Household consumption expend…  1971 9.19e11    919. Househ…
##  3       276 Germany Household consumption expend…  1972 9.69e11    969. Househ…
##  4       276 Germany Household consumption expend…  1973 9.97e11    997. Househ…
##  5       276 Germany Household consumption expend…  1974 9.95e11    995. Househ…
##  6       276 Germany Household consumption expend…  1975 1.03e12   1032. Househ…
##  7       276 Germany Household consumption expend…  1976 1.08e12   1076. Househ…
##  8       276 Germany Household consumption expend…  1977 1.12e12   1122. Househ…
##  9       276 Germany Household consumption expend…  1978 1.16e12   1162. Househ…
## 10       276 Germany Household consumption expend…  1979 1.20e12   1200. Househ…
## # … with 710 more rows, and abbreviated variable name ¹​tidy_IndicatorName
…
