…
Convert the dataframe from wide to ‘long’ format. Hint: use
gather() or pivot_longer() function. Name the new dataframe as
tidyweather, name the variable containing the name of the month as
month, and the temperature deviation values as delta.

tidyweather <- weather %>%
  select(1:13) %>%
  pivot_longer(
    cols = 2:13,
    names_to = "Month", 
    values_to = "delta")

tidyweather

## # A tibble: 1,716 × 3
##     Year Month delta
##    <dbl> <chr> <dbl>
##  1  1880 Jan   -0.39
##  2  1880 Feb   -0.53
##  3  1880 Mar   -0.23
##  4  1880 Apr   -0.3 
##  5  1880 May   -0.05
##  6  1880 Jun   -0.18
##  7  1880 Jul   -0.21
##  8  1880 Aug   -0.25
##  9  1880 Sep   -0.24
## 10  1880 Oct   -0.3 
## # … with 1,706 more rows
…
